…
df.tbls <- df.tbls[[1]]  %>%
            select(1:3) %>%
            rename(
              "No" = "#",
              "Album" = "Album",
              "Artist" = "Artist(s)"
            )

# df.tbls            

# A tibble: 500 x 3
      No Album                           Artist                   
   <int> <chr>                           <chr>                    
 1     1 What's Going On                 Marvin Gaye              
 2     2 Pet Sounds                      The Beach Boys           
 3     3 Blue                            Joni Mitchell            
 4     4 Songs in the Key of Life        Stevie Wonder            
 5     5 Abbey Road                      The Beatles              
 6     6 Nevermind                       Nirvana                  
 7     7 Rumours                         Fleetwood Mac            
 8     8 Purple Rain                     Prince and the Revolution
 9     9 Blood on the Tracks             Bob Dylan                
10    10 The Miseducation of Lauryn Hill Lauryn Hill              
# ... with 490 more rows
```
…
